…
### 2.1 (2.5 points)

Based on the definition above, can you identify if your data is tidy or
untidy? Go through all your columns, or if you have \>8 variables, just
pick 8, and explain whether the data is untidy or tidy.

<!--------------------------- Start your work below --------------------------->

``` r
#Loading my dataset
cancer_sample
```

    ## # A tibble: 569 × 32
    ##          ID diagnosis radius_m…¹ textu…² perim…³ area_…⁴ smoot…⁵ compa…⁶ conca…⁷
    ##       <dbl> <chr>          <dbl>   <dbl>   <dbl>   <dbl>   <dbl>   <dbl>   <dbl>
    ##  1   842302 M               18.0    10.4   123.    1001   0.118   0.278   0.300 
    ##  2   842517 M               20.6    17.8   133.    1326   0.0847  0.0786  0.0869
    ##  3 84300903 M               19.7    21.2   130     1203   0.110   0.160   0.197 
    ##  4 84348301 M               11.4    20.4    77.6    386.  0.142   0.284   0.241 
    ##  5 84358402 M               20.3    14.3   135.    1297   0.100   0.133   0.198 
    ##  6   843786 M               12.4    15.7    82.6    477.  0.128   0.17    0.158 
    ##  7   844359 M               18.2    20.0   120.    1040   0.0946  0.109   0.113 
    ##  8 84458202 M               13.7    20.8    90.2    578.  0.119   0.164   0.0937
    ##  9   844981 M               13      21.8    87.5    520.  0.127   0.193   0.186 
    ## 10 84501001 M               12.5    24.0    84.0    476.  0.119   0.240   0.227 
    ## # … with 559 more rows, 23 more variables: concave_points_mean <dbl>,
    ## #   symmetry_mean <dbl>, fractal_dimension_mean <dbl>, radius_se <dbl>,
    ## #   texture_se <dbl>, perimeter_se <dbl>, area_se <dbl>, smoothness_se <dbl>,
    ## #   compactness_se <dbl>, concavity_se <dbl>, concave_points_se <dbl>,
    ## #   symmetry_se <dbl>, fractal_dimension_se <dbl>, radius_worst <dbl>,
    ## #   texture_worst <dbl>, perimeter_worst <dbl>, area_worst <dbl>,
    ## #   smoothness_worst <dbl>, compactness_worst <dbl>, concavity_worst <dbl>, …

``` r
#Choosing 8 variables as instructed 
Eightvariables_cancersample <- cancer_sample %>% select(ID,diagnosis, radius_mean, texture_mean, perimeter_mean, area_mean, smoothness_mean, compactness_mean)
Eightvariables_cancersample
```

    ## # A tibble: 569 × 8
    ##          ID diagnosis radius_mean texture_mean perimet…¹ area_…² smoot…³ compa…⁴
    ##       <dbl> <chr>           <dbl>        <dbl>     <dbl>   <dbl>   <dbl>   <dbl>
    ##  1   842302 M                18.0         10.4     123.    1001   0.118   0.278 
    ##  2   842517 M                20.6         17.8     133.    1326   0.0847  0.0786
    ##  3 84300903 M                19.7         21.2     130     1203   0.110   0.160 
    ##  4 84348301 M                11.4         20.4      77.6    386.  0.142   0.284 
    ##  5 84358402 M                20.3         14.3     135.    1297   0.100   0.133 
    ##  6   843786 M                12.4         15.7      82.6    477.  0.128   0.17  
    ##  7   844359 M                18.2         20.0     120.    1040   0.0946  0.109 
    ##  8 84458202 M                13.7         20.8      90.2    578.  0.119   0.164 
    ##  9   844981 M                13           21.8      87.5    520.  0.127   0.193 
    ## 10 84501001 M                12.5         24.0      84.0    476.  0.119   0.240 
    ## # … with 559 more rows, and abbreviated variable names ¹​perimeter_mean,
    ## #   ²​area_mean, ³​smoothness_mean, ⁴​compactness_mean
…
Be sure to explain your reasoning for this task. Show us the “before”
and “after”.

<!--------------------------- Start your work below --------------------------->

``` r
#Before: Using 'pivot_wider, we create more columns in our dataset. The type of diagnosis ie. M(Malignant) and B(Benign) are now columns, and the values of 'radius_mean' are represented below these columns. This arrangement has also given rise to a large number of 'NAs'. Additionally, since the variable of primary interest is the type of diagnosis, having the same in under one column would be easier to view and also analyse relationships between diagnosis and other variables.

untidydata <- cancer_sample %>%
    pivot_wider(names_from = diagnosis,
                values_from = radius_mean)
print(untidydata)
```

    ## # A tibble: 569 × 32
    ##          ID texture_mean perim…¹ area_…² smoot…³ compa…⁴ conca…⁵ conca…⁶ symme…⁷
    ##       <dbl>        <dbl>   <dbl>   <dbl>   <dbl>   <dbl>   <dbl>   <dbl>   <dbl>
    ##  1   842302         10.4   123.    1001   0.118   0.278   0.300   0.147    0.242
    ##  2   842517         17.8   133.    1326   0.0847  0.0786  0.0869  0.0702   0.181
    ##  3 84300903         21.2   130     1203   0.110   0.160   0.197   0.128    0.207
    ##  4 84348301         20.4    77.6    386.  0.142   0.284   0.241   0.105    0.260
    ##  5 84358402         14.3   135.    1297   0.100   0.133   0.198   0.104    0.181
    ##  6   843786         15.7    82.6    477.  0.128   0.17    0.158   0.0809   0.209
    ##  7   844359         20.0   120.    1040   0.0946  0.109   0.113   0.074    0.179
    ##  8 84458202         20.8    90.2    578.  0.119   0.164   0.0937  0.0598   0.220
    ##  9   844981         21.8    87.5    520.  0.127   0.193   0.186   0.0935   0.235
    ## 10 84501001         24.0    84.0    476.  0.119   0.240   0.227   0.0854   0.203
    ## # … with 559 more rows, 23 more variables: fractal_dimension_mean <dbl>,
    ## #   radius_se <dbl>, texture_se <dbl>, perimeter_se <dbl>, area_se <dbl>,
    ## #   smoothness_se <dbl>, compactness_se <dbl>, concavity_se <dbl>,
    ## #   concave_points_se <dbl>, symmetry_se <dbl>, fractal_dimension_se <dbl>,
    ## #   radius_worst <dbl>, texture_worst <dbl>, perimeter_worst <dbl>,
    ## #   area_worst <dbl>, smoothness_worst <dbl>, compactness_worst <dbl>,
    ## #   concavity_worst <dbl>, concave_points_worst <dbl>, symmetry_worst <dbl>, …

``` r
#After: The variables of primary interest are in a column (diagnosis). This makes it easier to view the dataset and also visualize relationships between diagnosis and other variables of interest. The 'pivot_longer' command is used to create more rows.

tidydata <- untidydata %>% 
  pivot_longer(cols = c('M', 'B'), 
               names_to  = "diagnosis", 
               values_to = "radius_mean", values_drop_na = TRUE)
print(tidydata)
```

    ## # A tibble: 569 × 32
    ##          ID texture_mean perim…¹ area_…² smoot…³ compa…⁴ conca…⁵ conca…⁶ symme…⁷
    ##       <dbl>        <dbl>   <dbl>   <dbl>   <dbl>   <dbl>   <dbl>   <dbl>   <dbl>
    ##  1   842302         10.4   123.    1001   0.118   0.278   0.300   0.147    0.242
    ##  2   842517         17.8   133.    1326   0.0847  0.0786  0.0869  0.0702   0.181
    ##  3 84300903         21.2   130     1203   0.110   0.160   0.197   0.128    0.207
    ##  4 84348301         20.4    77.6    386.  0.142   0.284   0.241   0.105    0.260
    ##  5 84358402         14.3   135.    1297   0.100   0.133   0.198   0.104    0.181
    ##  6   843786         15.7    82.6    477.  0.128   0.17    0.158   0.0809   0.209
    ##  7   844359         20.0   120.    1040   0.0946  0.109   0.113   0.074    0.179
    ##  8 84458202         20.8    90.2    578.  0.119   0.164   0.0937  0.0598   0.220
    ##  9   844981         21.8    87.5    520.  0.127   0.193   0.186   0.0935   0.235
    ## 10 84501001         24.0    84.0    476.  0.119   0.240   0.227   0.0854   0.203
    ## # … with 559 more rows, 23 more variables: fractal_dimension_mean <dbl>,
    ## #   radius_se <dbl>, texture_se <dbl>, perimeter_se <dbl>, area_se <dbl>,
    ## #   smoothness_se <dbl>, compactness_se <dbl>, concavity_se <dbl>,
    ## #   concave_points_se <dbl>, symmetry_se <dbl>, fractal_dimension_se <dbl>,
    ## #   radius_worst <dbl>, texture_worst <dbl>, perimeter_worst <dbl>,
    ## #   area_worst <dbl>, smoothness_worst <dbl>, compactness_worst <dbl>,
    ## #   concavity_worst <dbl>, concave_points_worst <dbl>, symmetry_worst <dbl>, …

``` r
#Re-ordering the columns as the original dataset.
select(tidydata,ID,diagnosis,radius_mean,everything())
```

    ## # A tibble: 569 × 32
    ##          ID diagnosis radius_m…¹ textu…² perim…³ area_…⁴ smoot…⁵ compa…⁶ conca…⁷
    ##       <dbl> <chr>          <dbl>   <dbl>   <dbl>   <dbl>   <dbl>   <dbl>   <dbl>
    ##  1   842302 M               18.0    10.4   123.    1001   0.118   0.278   0.300 
    ##  2   842517 M               20.6    17.8   133.    1326   0.0847  0.0786  0.0869
    ##  3 84300903 M               19.7    21.2   130     1203   0.110   0.160   0.197 
    ##  4 84348301 M               11.4    20.4    77.6    386.  0.142   0.284   0.241 
    ##  5 84358402 M               20.3    14.3   135.    1297   0.100   0.133   0.198 
    ##  6   843786 M               12.4    15.7    82.6    477.  0.128   0.17    0.158 
    ##  7   844359 M               18.2    20.0   120.    1040   0.0946  0.109   0.113 
    ##  8 84458202 M               13.7    20.8    90.2    578.  0.119   0.164   0.0937
    ##  9   844981 M               13      21.8    87.5    520.  0.127   0.193   0.186 
    ## 10 84501001 M               12.5    24.0    84.0    476.  0.119   0.240   0.227 
    ## # … with 559 more rows, 23 more variables: concave_points_mean <dbl>,
    ## #   symmetry_mean <dbl>, fractal_dimension_mean <dbl>, radius_se <dbl>,
    ## #   texture_se <dbl>, perimeter_se <dbl>, area_se <dbl>, smoothness_se <dbl>,
    ## #   compactness_se <dbl>, concavity_se <dbl>, concave_points_se <dbl>,
    ## #   symmetry_se <dbl>, fractal_dimension_se <dbl>, radius_worst <dbl>,
    ## #   texture_worst <dbl>, perimeter_worst <dbl>, area_worst <dbl>,
    ## #   smoothness_worst <dbl>, compactness_worst <dbl>, concavity_worst <dbl>, …
…
Now, try to choose a version of your data that you think will be
appropriate to answer these 2 questions. Use between 4 and 8 functions
that we’ve covered so far (i.e. by filtering, cleaning, tidy’ing,
dropping irrelevant columns, etc.).

<!--------------------------- Start your work below --------------------------->

``` r
#To answer the research questions posed, variables diagnosis, perimeter_mean and area_mean are required. These can be isolated from the original dataset by using the 'select' command. 
select(cancer_sample,diagnosis,perimeter_mean,area_mean)
```

    ## # A tibble: 569 × 3
    ##    diagnosis perimeter_mean area_mean
    ##    <chr>              <dbl>     <dbl>
    ##  1 M                  123.      1001 
    ##  2 M                  133.      1326 
    ##  3 M                  130       1203 
    ##  4 M                   77.6      386.
    ##  5 M                  135.      1297 
    ##  6 M                   82.6      477.
    ##  7 M                  120.      1040 
    ##  8 M                   90.2      578.
    ##  9 M                   87.5      520.
    ## 10 M                   84.0      476.
    ## # … with 559 more rows

``` r
#We could also use the filter command and select only one kind of diagnosis to perform different tests. 
cancer_sample %>%
 filter(diagnosis == "M")  
```

    ## # A tibble: 212 × 32
    ##          ID diagnosis radius_m…¹ textu…² perim…³ area_…⁴ smoot…⁵ compa…⁶ conca…⁷
    ##       <dbl> <chr>          <dbl>   <dbl>   <dbl>   <dbl>   <dbl>   <dbl>   <dbl>
    ##  1   842302 M               18.0    10.4   123.    1001   0.118   0.278   0.300 
    ##  2   842517 M               20.6    17.8   133.    1326   0.0847  0.0786  0.0869
    ##  3 84300903 M               19.7    21.2   130     1203   0.110   0.160   0.197 
    ##  4 84348301 M               11.4    20.4    77.6    386.  0.142   0.284   0.241 
    ##  5 84358402 M               20.3    14.3   135.    1297   0.100   0.133   0.198 
    ##  6   843786 M               12.4    15.7    82.6    477.  0.128   0.17    0.158 
    ##  7   844359 M               18.2    20.0   120.    1040   0.0946  0.109   0.113 
    ##  8 84458202 M               13.7    20.8    90.2    578.  0.119   0.164   0.0937
    ##  9   844981 M               13      21.8    87.5    520.  0.127   0.193   0.186 
    ## 10 84501001 M               12.5    24.0    84.0    476.  0.119   0.240   0.227 
    ## # … with 202 more rows, 23 more variables: concave_points_mean <dbl>,
    ## #   symmetry_mean <dbl>, fractal_dimension_mean <dbl>, radius_se <dbl>,
    ## #   texture_se <dbl>, perimeter_se <dbl>, area_se <dbl>, smoothness_se <dbl>,
    ## #   compactness_se <dbl>, concavity_se <dbl>, concave_points_se <dbl>,
    ## #   symmetry_se <dbl>, fractal_dimension_se <dbl>, radius_worst <dbl>,
    ## #   texture_worst <dbl>, perimeter_worst <dbl>, area_worst <dbl>,
    ## #   smoothness_worst <dbl>, compactness_worst <dbl>, concavity_worst <dbl>, …

``` r
cancer_sample %>%
 filter(diagnosis == "B") 
```

    ## # A tibble: 357 × 32
    ##          ID diagnosis radius_m…¹ textu…² perim…³ area_…⁴ smoot…⁵ compa…⁶ conca…⁷
    ##       <dbl> <chr>          <dbl>   <dbl>   <dbl>   <dbl>   <dbl>   <dbl>   <dbl>
    ##  1  8510426 B              13.5     14.4    87.5    566.  0.0978  0.0813  0.0666
    ##  2  8510653 B              13.1     15.7    85.6    520   0.108   0.127   0.0457
    ##  3  8510824 B               9.50    12.4    60.3    274.  0.102   0.0649  0.0296
    ##  4   854941 B              13.0     18.4    82.6    524.  0.0898  0.0377  0.0256
    ##  5 85713702 B               8.20    16.8    51.7    202.  0.086   0.0594  0.0159
    ##  6   857155 B              12.0     14.6    78.0    449.  0.103   0.0909  0.0659
    ##  7   857156 B              13.5     22.3    86.9    561   0.0875  0.0770  0.0475
    ##  8   857343 B              11.8     21.6    74.7    428.  0.0864  0.0497  0.0166
    ##  9   857373 B              13.6     16.3    87.2    572.  0.0768  0.0606  0.0186
    ## 10   857374 B              11.9     18.2    75.7    438.  0.0826  0.0475  0.0197
    ## # … with 347 more rows, 23 more variables: concave_points_mean <dbl>,
    ## #   symmetry_mean <dbl>, fractal_dimension_mean <dbl>, radius_se <dbl>,
    ## #   texture_se <dbl>, perimeter_se <dbl>, area_se <dbl>, smoothness_se <dbl>,
    ## #   compactness_se <dbl>, concavity_se <dbl>, concave_points_se <dbl>,
    ## #   symmetry_se <dbl>, fractal_dimension_se <dbl>, radius_worst <dbl>,
    ## #   texture_worst <dbl>, perimeter_worst <dbl>, area_worst <dbl>,
    ## #   smoothness_worst <dbl>, compactness_worst <dbl>, concavity_worst <dbl>, …

``` r
#We could also use the filter command to define the perimeter and area values to understand the type of diagnosis that range constitutes.   
cancer_sample %>%
 filter(perimeter_mean>78, area_mean>400)  
```

    ## # A tibble: 390 × 32
    ##          ID diagnosis radius_m…¹ textu…² perim…³ area_…⁴ smoot…⁵ compa…⁶ conca…⁷
    ##       <dbl> <chr>          <dbl>   <dbl>   <dbl>   <dbl>   <dbl>   <dbl>   <dbl>
    ##  1   842302 M               18.0    10.4   123.    1001   0.118   0.278   0.300 
    ##  2   842517 M               20.6    17.8   133.    1326   0.0847  0.0786  0.0869
    ##  3 84300903 M               19.7    21.2   130     1203   0.110   0.160   0.197 
    ##  4 84358402 M               20.3    14.3   135.    1297   0.100   0.133   0.198 
    ##  5   843786 M               12.4    15.7    82.6    477.  0.128   0.17    0.158 
    ##  6   844359 M               18.2    20.0   120.    1040   0.0946  0.109   0.113 
    ##  7 84458202 M               13.7    20.8    90.2    578.  0.119   0.164   0.0937
    ##  8   844981 M               13      21.8    87.5    520.  0.127   0.193   0.186 
    ##  9 84501001 M               12.5    24.0    84.0    476.  0.119   0.240   0.227 
    ## 10   845636 M               16.0    23.2   103.     798.  0.0821  0.0667  0.0330
    ## # … with 380 more rows, 23 more variables: concave_points_mean <dbl>,
    ## #   symmetry_mean <dbl>, fractal_dimension_mean <dbl>, radius_se <dbl>,
    ## #   texture_se <dbl>, perimeter_se <dbl>, area_se <dbl>, smoothness_se <dbl>,
    ## #   compactness_se <dbl>, concavity_se <dbl>, concave_points_se <dbl>,
    ## #   symmetry_se <dbl>, fractal_dimension_se <dbl>, radius_worst <dbl>,
    ## #   texture_worst <dbl>, perimeter_worst <dbl>, area_worst <dbl>,
    ## #   smoothness_worst <dbl>, compactness_worst <dbl>, concavity_worst <dbl>, …

``` r
#Using arrange, we can group the type of diagnosis and arrange area_mean in ascending order. This could be helpful to understand the range of area_mean values for both type of diagnosis.
cancer_sample %>% arrange(diagnosis,area_mean)
```

    ## # A tibble: 569 × 32
    ##           ID diagnosis radius_…¹ textu…² perim…³ area_…⁴ smoot…⁵ compa…⁶ conca…⁷
    ##        <dbl> <chr>         <dbl>   <dbl>   <dbl>   <dbl>   <dbl>   <dbl>   <dbl>
    ##  1    862722 B              6.98    13.4    43.8    144.  0.117   0.0757  0     
    ##  2    921362 B              7.69    25.4    48.3    170.  0.0867  0.120   0.0925
    ##  3    921092 B              7.73    25.5    48.0    179.  0.0810  0.0488  0     
    ##  4     92751 B              7.76    24.5    47.9    181   0.0526  0.0436  0     
    ##  5  85713702 B              8.20    16.8    51.7    202.  0.086   0.0594  0.0159
    ##  6 871001502 B              8.22    20.7    53.3    204.  0.0940  0.130   0.132 
    ##  7    894047 B              8.60    18.6    54.1    221.  0.107   0.0585  0     
    ##  8     91805 B              8.57    13.1    54.5    221.  0.104   0.0763  0.0256
    ##  9    858981 B              8.60    21.0    54.7    222.  0.124   0.0896  0.03  
    ## 10    858477 B              8.62    11.8    54.3    224.  0.0975  0.0527  0.0206
    ## # … with 559 more rows, 23 more variables: concave_points_mean <dbl>,
    ## #   symmetry_mean <dbl>, fractal_dimension_mean <dbl>, radius_se <dbl>,
    ## #   texture_se <dbl>, perimeter_se <dbl>, area_se <dbl>, smoothness_se <dbl>,
    ## #   compactness_se <dbl>, concavity_se <dbl>, concave_points_se <dbl>,
    ## #   symmetry_se <dbl>, fractal_dimension_se <dbl>, radius_worst <dbl>,
    ## #   texture_worst <dbl>, perimeter_worst <dbl>, area_worst <dbl>,
    ## #   smoothness_worst <dbl>, compactness_worst <dbl>, concavity_worst <dbl>, …

``` r
cancer_sample %>% arrange(diagnosis,perimeter_mean)
```

    ## # A tibble: 569 × 32
    ##           ID diagnosis radius_…¹ textu…² perim…³ area_…⁴ smoot…⁵ compa…⁶ conca…⁷
    ##        <dbl> <chr>         <dbl>   <dbl>   <dbl>   <dbl>   <dbl>   <dbl>   <dbl>
    ##  1    862722 B              6.98    13.4    43.8    144.  0.117   0.0757  0     
    ##  2     92751 B              7.76    24.5    47.9    181   0.0526  0.0436  0     
    ##  3    921092 B              7.73    25.5    48.0    179.  0.0810  0.0488  0     
    ##  4    921362 B              7.69    25.4    48.3    170.  0.0867  0.120   0.0925
    ##  5  85713702 B              8.20    16.8    51.7    202.  0.086   0.0594  0.0159
    ##  6 871001502 B              8.22    20.7    53.3    204.  0.0940  0.130   0.132 
    ##  7    894047 B              8.60    18.6    54.1    221.  0.107   0.0585  0     
    ##  8    858477 B              8.62    11.8    54.3    224.  0.0975  0.0527  0.0206
    ##  9    872113 B              8.67    14.4    54.4    227.  0.0914  0.0428  0     
    ## 10     91805 B              8.57    13.1    54.5    221.  0.104   0.0763  0.0256
    ## # … with 559 more rows, 23 more variables: concave_points_mean <dbl>,
    ## #   symmetry_mean <dbl>, fractal_dimension_mean <dbl>, radius_se <dbl>,
    ## #   texture_se <dbl>, perimeter_se <dbl>, area_se <dbl>, smoothness_se <dbl>,
    ## #   compactness_se <dbl>, concavity_se <dbl>, concave_points_se <dbl>,
    ## #   symmetry_se <dbl>, fractal_dimension_se <dbl>, radius_worst <dbl>,
    ## #   texture_worst <dbl>, perimeter_worst <dbl>, area_worst <dbl>,
    ## #   smoothness_worst <dbl>, compactness_worst <dbl>, concavity_worst <dbl>, …
…
