…
<!-------------------------- Start your work below ---------------------------->

\#Initial exploration of datasets. Viewing data in this form has been
convenient for the user.

``` r
### EXPLORE HERE ###
steam_games
```

    ## # A tibble: 40,833 × 21
    ##       id url         types name  desc_…¹ recen…² all_r…³ relea…⁴ devel…⁵ publi…⁶
    ##    <dbl> <chr>       <chr> <chr> <chr>   <chr>   <chr>   <chr>   <chr>   <chr>  
    ##  1     1 https://st… app   DOOM  Now in… Very P… Very P… May 12… id Sof… Bethes…
    ##  2     2 https://st… app   PLAY… PLAYER… Mixed,… Mixed,… Dec 21… PUBG C… PUBG C…
    ##  3     3 https://st… app   BATT… Take c… Mixed,… Mostly… Apr 24… Harebr… Parado…
    ##  4     4 https://st… app   DayZ  The po… Mixed,… Mixed,… Dec 13… Bohemi… Bohemi…
    ##  5     5 https://st… app   EVE … EVE On… Mixed,… Mostly… May 6,… CCP     CCP,CCP
    ##  6     6 https://st… bund… Gran… Grand … NaN     NaN     NaN     Rockst… Rockst…
    ##  7     7 https://st… app   Devi… The ul… Very P… Very P… Mar 7,… CAPCOM… CAPCOM…
    ##  8     8 https://st… app   Huma… Human:… Very P… Very P… Jul 22… No Bra… Curve …
    ##  9     9 https://st… app   They… They A… Very P… Very P… Dec 12… Numant… Numant…
    ## 10    10 https://st… app   Warh… In a w… <NA>    Mixed,… May 31… Eko So… Bigben…
    ## # … with 40,823 more rows, 11 more variables: popular_tags <chr>,
    ## #   game_details <chr>, languages <chr>, achievements <dbl>, genre <chr>,
    ## #   game_description <chr>, mature_content <chr>, minimum_requirements <chr>,
    ## #   recommended_requirements <chr>, original_price <dbl>, discount_price <dbl>,
    ## #   and abbreviated variable names ¹​desc_snippet, ²​recent_reviews,
    ## #   ³​all_reviews, ⁴​release_date, ⁵​developer, ⁶​publisher

``` r
cancer_sample
```

    ## # A tibble: 569 × 32
    ##          ID diagnosis radius_m…¹ textu…² perim…³ area_…⁴ smoot…⁵ compa…⁶ conca…⁷
    ##       <dbl> <chr>          <dbl>   <dbl>   <dbl>   <dbl>   <dbl>   <dbl>   <dbl>
    ##  1   842302 M               18.0    10.4   123.    1001   0.118   0.278   0.300 
    ##  2   842517 M               20.6    17.8   133.    1326   0.0847  0.0786  0.0869
    ##  3 84300903 M               19.7    21.2   130     1203   0.110   0.160   0.197 
    ##  4 84348301 M               11.4    20.4    77.6    386.  0.142   0.284   0.241 
    ##  5 84358402 M               20.3    14.3   135.    1297   0.100   0.133   0.198 
    ##  6   843786 M               12.4    15.7    82.6    477.  0.128   0.17    0.158 
    ##  7   844359 M               18.2    20.0   120.    1040   0.0946  0.109   0.113 
    ##  8 84458202 M               13.7    20.8    90.2    578.  0.119   0.164   0.0937
    ##  9   844981 M               13      21.8    87.5    520.  0.127   0.193   0.186 
    ## 10 84501001 M               12.5    24.0    84.0    476.  0.119   0.240   0.227 
    ## # … with 559 more rows, 23 more variables: concave_points_mean <dbl>,
    ## #   symmetry_mean <dbl>, fractal_dimension_mean <dbl>, radius_se <dbl>,
    ## #   texture_se <dbl>, perimeter_se <dbl>, area_se <dbl>, smoothness_se <dbl>,
    ## #   compactness_se <dbl>, concavity_se <dbl>, concave_points_se <dbl>,
    ## #   symmetry_se <dbl>, fractal_dimension_se <dbl>, radius_worst <dbl>,
    ## #   texture_worst <dbl>, perimeter_worst <dbl>, area_worst <dbl>,
    ## #   smoothness_worst <dbl>, compactness_worst <dbl>, concavity_worst <dbl>, …

``` r
vancouver_trees
```

    ## # A tibble: 146,611 × 20
    ##    tree_id civic_number std_st…¹ genus…² speci…³ culti…⁴ commo…⁵ assig…⁶ root_…⁷
    ##      <dbl>        <dbl> <chr>    <chr>   <chr>   <chr>   <chr>   <chr>   <chr>  
    ##  1  149556          494 W 58TH … ULMUS   AMERIC… BRANDON BRANDO… N       N      
    ##  2  149563          450 W 58TH … ZELKOVA SERRATA <NA>    JAPANE… N       N      
    ##  3  149579         4994 WINDSOR… STYRAX  JAPONI… <NA>    JAPANE… N       N      
    ##  4  149590          858 E 39TH … FRAXIN… AMERIC… AUTUMN… AUTUMN… Y       N      
    ##  5  149604         5032 WINDSOR… ACER    CAMPES… <NA>    HEDGE … N       N      
    ##  6  149616          585 W 61ST … PYRUS   CALLER… CHANTI… CHANTI… N       N      
    ##  7  149617         4909 SHERBRO… ACER    PLATAN… COLUMN… COLUMN… N       N      
    ##  8  149618         4925 SHERBRO… ACER    PLATAN… COLUMN… COLUMN… N       N      
    ##  9  149619         4969 SHERBRO… ACER    PLATAN… COLUMN… COLUMN… N       N      
    ## 10  149625          720 E 39TH … FRAXIN… AMERIC… AUTUMN… AUTUMN… N       N      
    ## # … with 146,601 more rows, 11 more variables: plant_area <chr>,
    ## #   on_street_block <dbl>, on_street <chr>, neighbourhood_name <chr>,
    ## #   street_side_name <chr>, height_range_id <dbl>, diameter <dbl>, curb <chr>,
    ## #   date_planted <date>, longitude <dbl>, latitude <dbl>, and abbreviated
    ## #   variable names ¹​std_street, ²​genus_name, ³​species_name, ⁴​cultivar_name,
    ## #   ⁵​common_name, ⁶​assigned, ⁷​root_barrier

``` r
apt_buildings
```

    ## # A tibble: 3,455 × 37
    ##       id air_c…¹ ameni…² balco…³ barri…⁴ bike_…⁵ exter…⁶ fire_…⁷ garba…⁸ heati…⁹
    ##    <dbl> <chr>   <chr>   <chr>   <chr>   <chr>   <chr>   <chr>   <chr>   <chr>  
    ##  1 10359 NONE    Outdoo… YES     YES     0 indo… NO      YES     YES     HOT WA…
    ##  2 10360 NONE    Outdoo… YES     NO      0 indo… NO      YES     YES     HOT WA…
    ##  3 10361 NONE    <NA>    YES     NO      Not Av… NO      YES     NO      HOT WA…
    ##  4 10362 NONE    <NA>    YES     YES     Not Av… YES     YES     NO      HOT WA…
    ##  5 10363 NONE    <NA>    NO      NO      12 ind… NO      YES     NO      HOT WA…
    ##  6 10364 NONE    <NA>    NO      NO      Not Av… <NA>    YES     NO      HOT WA…
    ##  7 10365 NONE    <NA>    NO      YES     Not Av… NO      YES     NO      HOT WA…
    ##  8 10366 CENTRA… Indoor… YES     NO      Not Av… NO      YES     YES     HOT WA…
    ##  9 10367 NONE    <NA>    YES     YES     0 indo… NO      YES     YES     ELECTR…
    ## 10 10368 NONE    Indoor… YES     YES     Not Av… NO      YES     NO      HOT WA…
    ## # … with 3,445 more rows, 27 more variables: intercom <chr>,
    ## #   laundry_room <chr>, locker_or_storage_room <chr>, no_of_elevators <dbl>,
    ## #   parking_type <chr>, pets_allowed <chr>, prop_management_company_name <chr>,
    ## #   property_type <chr>, rsn <dbl>, separate_gas_meters <chr>,
    ## #   separate_hydro_meters <chr>, separate_water_meters <chr>,
    ## #   site_address <chr>, sprinkler_system <chr>, visitor_parking <chr>,
    ## #   ward <chr>, window_type <chr>, year_built <dbl>, year_registered <dbl>, …
…
``` r
#Since we are interested in nuclear feature variables that differentiate between the types of diagnosis, we use the filter command to display all observations with M diagnosis to understand data distributions and values.
filtered_dataset<-filter(cancer_sample,diagnosis == "M")
filtered_dataset
```

    ## # A tibble: 212 × 32
    ##          ID diagnosis radius_m…¹ textu…² perim…³ area_…⁴ smoot…⁵ compa…⁶ conca…⁷
    ##       <dbl> <chr>          <dbl>   <dbl>   <dbl>   <dbl>   <dbl>   <dbl>   <dbl>
    ##  1   842302 M               18.0    10.4   123.    1001   0.118   0.278   0.300 
    ##  2   842517 M               20.6    17.8   133.    1326   0.0847  0.0786  0.0869
    ##  3 84300903 M               19.7    21.2   130     1203   0.110   0.160   0.197 
    ##  4 84348301 M               11.4    20.4    77.6    386.  0.142   0.284   0.241 
    ##  5 84358402 M               20.3    14.3   135.    1297   0.100   0.133   0.198 
    ##  6   843786 M               12.4    15.7    82.6    477.  0.128   0.17    0.158 
    ##  7   844359 M               18.2    20.0   120.    1040   0.0946  0.109   0.113 
    ##  8 84458202 M               13.7    20.8    90.2    578.  0.119   0.164   0.0937
    ##  9   844981 M               13      21.8    87.5    520.  0.127   0.193   0.186 
    ## 10 84501001 M               12.5    24.0    84.0    476.  0.119   0.240   0.227 
    ## # … with 202 more rows, 23 more variables: concave_points_mean <dbl>,
    ## #   symmetry_mean <dbl>, fractal_dimension_mean <dbl>, radius_se <dbl>,
    ## #   texture_se <dbl>, perimeter_se <dbl>, area_se <dbl>, smoothness_se <dbl>,
    ## #   compactness_se <dbl>, concavity_se <dbl>, concave_points_se <dbl>,
    ## #   symmetry_se <dbl>, fractal_dimension_se <dbl>, radius_worst <dbl>,
    ## #   texture_worst <dbl>, perimeter_worst <dbl>, area_worst <dbl>,
    ## #   smoothness_worst <dbl>, compactness_worst <dbl>, concavity_worst <dbl>, …
…
